\relax 
\@writefile{toc}{\contentsline {section}{\numberline {1}Aim}{1}}
\@writefile{toc}{\contentsline {section}{\numberline {2}Methods}{1}}
\@writefile{toc}{\contentsline {subsection}{\numberline {2.1}Bayes Network}{1}}
\@writefile{toc}{\contentsline {subsection}{\numberline {2.2}Inference Methods}{1}}
\@writefile{toc}{\contentsline {section}{\numberline {3}Results and Discussions}{2}}
\@writefile{toc}{\contentsline {subsection}{\numberline {3.1}Task 2}{2}}
\@writefile{toc}{\contentsline {subsection}{\numberline {3.2}Task 3}{5}}
\@writefile{toc}{\contentsline {subsection}{\numberline {3.3}Task 4}{6}}
\@writefile{toc}{\contentsline {section}{\numberline {4}Conclusions}{8}}
\@writefile{toc}{\contentsline {subsection}{\numberline {4.1}}{8}}
\@writefile{toc}{\contentsline {section}{\numberline {5}Reflection}{8}}
\@writefile{toc}{\contentsline {section}{\numberline {6}Instructions}{9}}
\@writefile{toc}{\contentsline {section}{\numberline {7}References}{9}}
