{
    "nodes": [
        {
            "id": "C",
            "parent": null,
            "probability": [
                {
                    "given": null,
                    "value": 0.50
                }
            ]
        },
        {
            "id": "S",
            "parent": "C",
            "probability": [
                {
                    "given": "C",
                    "value": 0.10
                },
                {
                    "given": "-C",
                    "value": 0.50
                }
            ]
        },
        {
            "id": "R",
            "parent": "C",
            "probability": [
                {
                    "given": "C",
                    "value": 0.80
                },
                {
                    "given": "-C",
                    "value": 0.20
                }
            ]
        },
        {
            "id": "W",
            "parent": [
                "S",
                "R"
            ],
            "probability": [
                {
                    "given": "S,R",
                    "value": 0.99
                },
                {
                    "given": "S,-R",
                    "value": 0.90
                },
                {
                    "given": "-S,R",
                    "value": 0.90
                },
                {
                    "given": "-S,-R",
                    "value": 0.00
                }
            ]
        }
    ]
}
